<?xml version="1.0" standalone="no"?>
<!DOCTYPE svg PUBLIC "-//W3C//DTD SVG 20010904//EN"
 "http://www.w3.org/TR/2001/REC-SVG-20010904/DTD/svg10.dtd">
<svg version="1.0" xmlns="http://www.w3.org/2000/svg"
 width="776.000000pt" height="776.000000pt" viewBox="0 0 776.000000 776.000000"
 preserveAspectRatio="xMidYMid meet">
<metadata>
Created by potrace 1.11, written by Peter Selinger 2001-2013
</metadata>
<g transform="translate(0.000000,776.000000) scale(0.100000,-0.100000)"
fill="#000000" stroke="none">
<path d="M3938 7235 c-2 -2 -45 -6 -97 -9 -52 -4 -104 -8 -115 -11 -12 -2 -43
-7 -71 -10 -27 -3 -63 -8 -80 -11 -16 -2 -43 -6 -60 -9 -46 -6 -135 -22 -190
-35 -27 -6 -61 -14 -74 -16 -13 -3 -32 -9 -41 -14 -10 -5 -19 -7 -22 -5 -2 2
-26 -3 -53 -11 -28 -9 -60 -17 -72 -20 -53 -10 -292 -97 -357 -129 -39 -19
-77 -35 -85 -35 -12 0 -194 -53 -231 -67 -14 -5 -193 -69 -215 -77 -67 -22
-289 -122 -394 -177 -134 -70 -331 -199 -451 -296 -120 -96 -428 -408 -488
-495 -8 -10 -23 -29 -35 -42 -27 -30 -27 -30 -119 -151 -180 -240 -329 -488
-437 -727 -42 -93 -82 -189 -87 -207 -2 -9 -19 -60 -38 -114 -31 -89 -49 -153
-61 -215 -2 -13 -7 -32 -10 -42 -6 -20 -9 -34 -20 -100 -4 -25 -9 -52 -10 -60
-19 -105 -27 -515 -12 -625 4 -27 10 -70 13 -95 3 -25 8 -53 10 -63 3 -10 7
-31 9 -46 2 -16 13 -69 25 -118 12 -48 23 -95 25 -103 5 -22 51 -155 79 -230
27 -74 108 -250 149 -325 65 -119 90 -160 98 -163 5 -2 9 -8 9 -14 0 -9 112
-179 135 -204 6 -6 21 -26 35 -44 114 -151 311 -361 461 -491 34 -30 74 -65
88 -78 14 -13 98 -77 186 -143 88 -65 165 -122 172 -128 7 -5 17 -10 23 -10 5
0 10 -4 10 -10 0 -5 4 -10 9 -10 5 0 51 -26 102 -59 109 -68 170 -102 329
-182 109 -54 246 -119 254 -119 2 0 21 -8 42 -17 22 -9 41 -17 44 -18 3 0 10
-3 15 -7 12 -8 153 -58 280 -99 91 -30 327 -94 377 -103 15 -2 31 -7 35 -9 5
-3 33 -8 63 -12 30 -4 59 -9 63 -12 4 -3 25 -6 45 -8 20 -2 46 -6 57 -8 11 -3
45 -8 75 -12 30 -4 64 -9 75 -11 19 -4 44 -7 176 -19 174 -16 503 -21 659 -10
190 13 251 19 335 32 22 3 54 7 70 9 17 1 30 3 30 4 0 1 11 4 25 5 43 6 74 12
105 19 69 15 81 17 110 21 35 5 227 54 330 85 39 12 77 23 85 25 16 4 167 57
215 75 17 6 31 11 32 11 2 0 41 17 88 39 47 22 88 39 90 39 11 1 225 109 310
157 131 74 319 195 390 251 17 13 35 27 40 31 274 203 571 515 771 807 51 74
152 247 152 259 0 5 4 12 9 15 4 3 21 33 36 66 16 33 33 67 38 75 5 8 12 22
15 30 4 8 23 56 44 105 56 136 131 375 156 500 8 45 11 54 14 58 1 1 3 11 5
22 1 11 6 34 11 50 4 17 9 262 12 545 3 443 1 528 -13 610 -9 52 -20 109 -25
125 -5 17 -11 41 -14 55 -13 80 -104 372 -142 459 -9 20 -20 45 -24 56 -25 65
-149 308 -196 387 -144 237 -284 417 -479 613 -232 232 -445 393 -755 568 -51
29 -237 121 -295 147 -27 12 -63 28 -80 35 -42 19 -218 84 -290 107 -189 61
-358 102 -570 139 -127 22 -139 24 -250 34 -38 4 -86 9 -105 12 -42 5 -577 13
-582 8z m332 -115 c49 2 47 2 135 -4 103 -7 191 -15 235 -21 19 -2 55 -7 79
-10 43 -5 58 -7 161 -25 30 -5 66 -11 80 -14 14 -2 43 -9 65 -14 22 -6 51 -13
65 -15 14 -3 45 -10 70 -17 25 -7 50 -13 55 -14 49 -11 295 -89 335 -107 14
-6 33 -15 42 -20 10 -5 22 -9 28 -9 10 0 53 -18 168 -72 35 -16 83 -38 105
-48 54 -25 163 -84 255 -141 40 -24 81 -49 90 -54 21 -13 73 -47 87 -57 6 -5
64 -48 130 -97 66 -50 137 -105 158 -124 132 -120 247 -240 375 -393 88 -104
303 -434 301 -461 0 -3 3 -9 8 -12 8 -6 113 -215 113 -226 0 -2 11 -28 24 -57
53 -119 129 -349 152 -458 3 -14 9 -41 14 -60 5 -19 12 -51 15 -70 3 -19 8
-42 10 -50 2 -8 7 -35 10 -60 3 -25 7 -56 9 -70 33 -178 37 -513 11 -775 -6
-58 -37 -243 -50 -305 -3 -14 -8 -36 -11 -50 -3 -14 -10 -43 -16 -65 -5 -22
-12 -47 -13 -55 -2 -8 -14 -46 -26 -85 -12 -38 -24 -77 -25 -85 -2 -8 -9 -30
-17 -50 -8 -19 -32 -78 -52 -130 -179 -453 -500 -877 -936 -1235 -93 -77 -314
-227 -434 -296 -33 -18 -73 -42 -90 -51 -82 -47 -304 -152 -425 -200 -79 -32
-238 -89 -255 -92 -5 -1 -23 -7 -40 -13 -38 -14 -167 -53 -192 -57 -11 -2 -48
-11 -84 -20 -35 -8 -75 -18 -89 -20 -14 -3 -43 -10 -65 -15 -22 -5 -56 -12
-75 -15 -19 -3 -46 -8 -60 -10 -14 -3 -43 -7 -65 -11 -132 -19 -162 -23 -175
-23 -8 0 -31 -3 -50 -6 -168 -25 -703 -26 -865 -1 -16 2 -52 7 -80 10 -27 4
-75 10 -105 15 -30 5 -71 11 -90 14 -31 5 -151 28 -206 40 -11 2 -51 12 -88
21 -37 9 -72 18 -79 19 -83 17 -365 110 -552 183 -172 68 -443 200 -590 289
-60 37 -120 72 -132 78 -13 6 -23 14 -23 19 0 4 -5 7 -10 7 -13 0 -239 158
-261 182 -9 10 -19 18 -23 18 -17 0 -193 156 -321 284 -156 157 -186 190 -265
291 -30 39 -57 72 -60 75 -14 14 -133 195 -177 270 -80 137 -214 432 -228 500
-2 8 -13 44 -24 80 -12 36 -23 76 -26 89 -2 12 -6 30 -9 39 -3 9 -8 31 -11 47
-3 17 -8 40 -10 53 -17 80 -17 79 -29 172 -21 149 -27 376 -14 490 4 36 10 83
12 105 6 57 36 227 43 238 3 4 7 23 10 40 2 18 23 88 46 157 22 69 42 127 42
130 1 3 7 18 13 33 7 16 12 30 12 32 0 6 46 109 91 202 21 44 39 86 39 92 0 6
5 11 10 11 6 0 10 5 10 10 0 13 97 185 127 226 13 17 23 34 23 37 0 5 64 104
92 142 165 223 264 350 311 401 7 6 37 40 67 75 71 81 181 191 254 254 32 28
64 56 71 63 8 7 65 48 127 92 62 44 118 84 125 90 7 5 16 10 20 10 5 0 25 11
45 25 51 34 295 156 398 198 104 43 278 108 293 111 7 1 26 7 42 13 101 38
394 115 675 178 200 45 188 42 279 60 84 17 121 37 121 65 0 11 6 20 13 21 16
1 68 7 152 19 130 17 162 20 296 25 73 3 134 6 135 8 1 1 26 1 56 -1 29 -1 69
-2 88 -2z"/>
<path d="M5241 5517 c-24 -12 -43 -26 -42 -31 2 -5 -1 -12 -6 -15 -4 -3 -19
-26 -32 -51 -27 -51 -295 -581 -299 -592 -5 -12 -66 -145 -111 -241 -22 -49
-41 -95 -41 -102 0 -7 -7 -18 -15 -25 -8 -7 -15 -18 -15 -24 0 -6 -29 -77 -64
-156 -85 -195 -105 -263 -111 -388 -9 -181 97 -314 275 -346 14 -2 36 -7 50
-10 14 -3 39 -8 55 -11 17 -3 66 -12 110 -21 149 -27 337 -36 447 -20 263 38
495 228 526 431 17 112 7 218 -39 389 -15 60 -26 113 -23 117 3 5 1 9 -4 9 -6
0 -12 15 -15 33 -3 17 -7 41 -10 52 -11 41 -59 231 -67 265 -5 19 -11 45 -14
58 -3 12 -8 31 -11 43 -2 11 -7 29 -10 39 -3 10 -8 29 -11 42 -7 29 -21 87
-34 138 -5 22 -14 57 -18 78 -30 132 -93 246 -151 276 -31 16 -89 31 -159 40
-18 3 -47 14 -66 25 -41 25 -40 25 -95 -2z"/>
<path d="M2450 5123 c-138 -48 -274 -215 -391 -478 -21 -48 -77 -231 -86 -280
-2 -11 -10 -55 -18 -98 -8 -43 -17 -115 -20 -160 -3 -45 -8 -109 -11 -142 -8
-88 -8 -151 0 -163 3 -6 3 -13 -1 -15 -8 -5 -8 -207 1 -367 20 -371 31 -419
107 -463 24 -14 55 -28 69 -31 14 -3 36 -8 50 -11 108 -26 296 3 420 64 174
86 349 245 508 461 51 69 96 130 102 137 5 7 10 15 10 17 0 3 22 38 48 78 l49
72 -24 65 c-13 36 -23 66 -23 66 2 0 4 -8 -64 196 -78 235 -136 380 -226 564
-84 171 -215 380 -271 433 -73 69 -142 86 -229 55z"/>
<path d="M6840 3448 c-22 -15 -37 -35 -42 -58 -14 -56 -51 -174 -60 -192 -7
-15 -23 -10 -135 46 -110 55 -132 62 -158 55 -60 -17 -81 -80 -43 -126 6 -8
71 -44 144 -80 l133 -65 -59 -117 c-33 -64 -82 -152 -110 -195 l-51 -79 -17
25 c-9 14 -30 39 -47 55 -16 17 -52 56 -79 87 -56 64 -95 81 -138 59 -19 -9
-29 -24 -34 -47 -8 -46 -1 -63 52 -121 161 -178 166 -184 152 -199 -7 -8 -31
-35 -53 -62 -82 -98 -268 -280 -354 -344 -33 -24 -61 -47 -90 -71 -16 -14 -13
-18 -77 103 -49 93 -77 115 -128 102 -30 -7 -58 -53 -53 -87 2 -12 25 -65 51
-117 52 -102 52 -111 0 -139 -16 -9 -61 -36 -101 -59 -134 -79 -432 -215 -543
-248 -28 -8 -35 -7 -36 4 0 7 -15 61 -40 152 -23 80 -33 97 -65 111 -39 15
-83 -3 -99 -41 -10 -24 -9 -41 5 -92 9 -35 18 -74 21 -88 2 -14 7 -32 10 -40
3 -8 8 -27 10 -42 5 -24 1 -28 -33 -37 -105 -28 -253 -62 -289 -67 -23 -2 -53
-7 -65 -9 -63 -13 -161 -26 -204 -28 -45 -2 -49 0 -56 25 -4 16 -4 30 1 33 4
3 4 21 0 40 -4 20 -4 38 1 41 5 3 6 10 3 16 -4 5 -6 49 -5 97 3 143 2 145 -28
177 -31 33 -75 31 -106 -2 -14 -15 -25 -39 -26 -53 0 -14 0 -108 0 -207 l-1
-182 -26 -4 c-92 -12 -443 3 -594 26 -28 4 -29 10 -9 72 51 157 82 267 83 294
1 39 -36 80 -72 80 -35 0 -76 -32 -86 -67 -4 -16 -8 -31 -9 -35 -2 -5 -4 -10
-5 -13 -1 -3 -3 -8 -4 -12 -1 -5 -12 -42 -24 -83 -13 -41 -32 -105 -43 -141
l-20 -66 -63 13 c-35 7 -76 15 -92 18 -67 12 -324 90 -324 98 0 8 29 57 40 68
14 13 70 102 70 110 0 6 4 10 8 10 5 0 19 19 32 43 13 23 32 51 42 61 10 11
18 26 18 33 0 7 5 13 10 13 20 0 32 53 21 92 -14 46 -50 63 -101 46 -21 -7
-104 -118 -175 -235 -13 -22 -18 -28 -60 -86 -19 -26 -35 -50 -35 -53 0 -3 -8
-16 -18 -29 l-18 -23 -75 31 c-84 35 -374 180 -404 203 -19 14 -17 19 65 182
46 92 88 177 91 189 17 55 -39 114 -93 98 -38 -12 -46 -23 -107 -144 -33 -64
-72 -139 -87 -167 l-28 -52 -55 41 c-93 68 -212 167 -294 247 l-78 75 127 90
c149 105 164 120 164 156 0 40 -9 58 -39 73 -31 16 -65 12 -96 -12 -12 -9 -31
-23 -41 -29 -43 -29 -190 -133 -201 -142 -28 -25 -49 -4 -168 164 -68 97 -154
240 -158 262 -1 7 144 87 229 126 73 34 95 99 48 142 -15 14 -38 25 -52 25
-13 0 -84 -31 -158 -70 -73 -38 -135 -70 -137 -70 -2 0 -14 20 -27 44 -38 74
-119 85 -146 20 -16 -37 -14 -61 9 -113 l14 -34 -81 -41 c-44 -22 -89 -50 -99
-60 -41 -45 -4 -126 59 -126 16 0 65 20 110 44 90 48 78 52 129 -39 41 -74
179 -274 224 -325 22 -25 41 -51 41 -57 0 -7 -12 -20 -28 -30 -15 -10 -29 -20
-32 -23 -3 -3 -25 -18 -50 -35 -60 -39 -89 -74 -90 -108 0 -36 40 -77 76 -77
25 0 146 73 200 122 11 10 26 18 33 18 7 0 56 -41 110 -91 106 -101 200 -179
303 -253 37 -26 70 -52 73 -56 3 -5 -15 -49 -40 -97 -25 -48 -47 -98 -50 -111
-6 -33 13 -69 44 -81 50 -20 88 1 122 66 13 26 34 67 47 90 l23 42 52 -30 c29
-16 59 -34 67 -39 20 -12 278 -140 283 -140 3 0 21 -7 40 -15 l36 -15 -41 -62
c-23 -35 -46 -66 -52 -70 -6 -4 -7 -8 -2 -8 5 0 3 -6 -3 -14 -29 -35 18 -115
67 -111 47 3 62 16 114 94 78 116 74 113 117 95 20 -9 45 -17 56 -20 11 -2 52
-13 90 -25 77 -22 176 -48 215 -54 31 -5 111 -24 128 -30 8 -3 10 -10 5 -17
-4 -7 -9 -22 -10 -32 -2 -11 -10 -39 -18 -63 -22 -64 -19 -98 11 -128 32 -32
75 -30 108 5 13 14 33 59 45 100 12 41 25 83 28 94 4 16 12 17 62 12 151 -17
358 -29 514 -28 l128 0 -1 -126 c-2 -196 -2 -191 25 -217 32 -33 75 -33 109 1
26 27 26 27 26 190 0 149 2 164 18 165 9 0 24 2 33 4 8 1 42 6 75 9 32 4 70 9
84 11 53 10 87 15 130 21 25 3 48 8 52 10 4 3 22 7 40 9 18 3 81 18 140 33 59
16 111 26 116 23 4 -3 19 -46 31 -96 42 -161 61 -213 86 -229 50 -33 110 -9
120 47 4 21 -5 68 -25 137 -18 58 -37 126 -44 151 l-13 46 36 12 c54 19 211
81 251 98 135 61 370 185 442 235 28 19 48 17 48 -5 0 -7 17 -44 37 -82 21
-39 62 -119 93 -180 50 -99 59 -111 93 -124 35 -13 40 -13 65 6 54 41 49 63
-65 289 -58 113 -101 209 -96 213 4 4 40 32 78 61 136 105 274 234 412 386
l62 69 48 -54 c126 -143 139 -154 175 -157 44 -4 79 29 80 74 1 34 -8 49 -89
140 -33 37 -72 81 -87 99 l-27 32 27 43 c15 24 31 45 35 46 5 2 9 7 9 12 0 4
18 38 40 74 22 36 63 111 90 166 l51 100 99 -50 c55 -28 109 -50 119 -50 62 0
99 52 76 107 -11 25 -33 41 -122 84 -59 29 -109 54 -111 55 -2 1 13 55 34 119
53 170 53 200 -6 230 -36 19 -31 19 -70 -7z"/>
<path d="M3619 3286 c-14 -10 -65 -130 -176 -416 -64 -163 -65 -166 -47 -210
9 -21 21 -41 27 -44 7 -3 30 -17 52 -31 93 -57 179 -78 233 -56 50 21 89 93
94 171 3 58 -26 262 -45 310 -3 8 -8 29 -12 45 -11 52 -87 234 -99 238 -7 3
-19 0 -27 -7z"/>
<path d="M4175 3203 c-11 -8 -19 -18 -18 -22 1 -5 5 -30 8 -57 3 -27 8 -60 10
-74 3 -14 7 -47 11 -75 3 -27 8 -59 10 -70 3 -11 7 -45 10 -75 4 -30 11 -63
16 -72 5 -10 6 -18 3 -18 -4 0 3 -14 15 -30 39 -55 183 -113 275 -111 51 1 65
4 65 13 0 4 5 8 11 8 16 0 57 49 68 81 18 51 -10 95 -137 219 -122 118 -131
126 -242 219 -36 30 -70 60 -75 67 -8 9 -15 9 -30 -3z"/>
</g>
</svg>
